(footprint "DFN-14-1EP_4x4mm_P0.5mm_EP2.86x3.6mm"
	(version 20240108)
	(generator "pcbnew")
	(generator_version "8.0")
	(layer "F.Cu")
	(descr "DFN14, 4x4, 0.5P; CASE 506CM (see ON Semiconductor 506CM.PDF)")
	(tags "DFN 0.5")
	(property "Reference" "REF**"
		(at 0 -3.05 0)
		(layer "F.SilkS")
		(uuid "330d76ee-3f13-4fbc-a11e-61c95b120763")
		(effects
			(font
				(size 1 1)
				(thickness 0.15)
			)
		)
	)
	(property "Value" "DFN-14-1EP_4x4mm_P0.5mm_EP2.86x3.6mm"
		(at 0 3.05 0)
		(layer "F.Fab")
		(uuid "8c8f0cd6-eab3-4817-9a2b-a2dbdc3c74d8")
		(effects
			(font
				(size 1 1)
				(thickness 0.15)
			)
		)
	)
	(property "Footprint" ""
		(at 0 0 0)
		(unlocked yes)
		(layer "F.Fab")
		(hide yes)
		(uuid "7d197857-9366-40a5-9d82-f02359093dbc")
		(effects
			(font
				(size 1.27 1.27)
			)
		)
	)
	(property "Datasheet" ""
		(at 0 0 0)
		(unlocked yes)
		(layer "F.Fab")
		(hide yes)
		(uuid "69cf953b-fff9-48ca-b2c0-16c2a9d874b2")
		(effects
			(font
				(size 1.27 1.27)
			)
		)
	)
	(property "Description" ""
		(at 0 0 0)
		(unlocked yes)
		(layer "F.Fab")
		(hide yes)
		(uuid "32263420-3a7e-4ded-b226-df787a8e5860")
		(effects
			(font
				(size 1.27 1.27)
			)
		)
	)
	(attr smd)
	(fp_line
		(start -2 -2.11)
		(end 2 -2.11)
		(stroke
			(width 0.12)
			(type solid)
		)
		(layer "F.SilkS")
		(uuid "76044ace-4cc4-45d9-a35f-2abc36824fe1")
	)
	(fp_line
		(start -2 2.11)
		(end 2 2.11)
		(stroke
			(width 0.12)
			(type solid)
		)
		(layer "F.SilkS")
		(uuid "3293375a-ab8e-42ee-961a-9b699defff9d")
	)
	(fp_poly
		(pts
			(xy -2.34 -1.85) (xy -2.82 -1.85) (xy -2.34 -2.33) (xy -2.34 -1.85)
		)
		(stroke
			(width 0.12)
			(type solid)
		)
		(fill solid)
		(layer "F.SilkS")
		(uuid "ba0e4141-7aa3-4fd0-9c09-2a84ea61a778")
	)
	(fp_line
		(start -2.4 -2.3)
		(end -2.4 2.3)
		(stroke
			(width 0.05)
			(type solid)
		)
		(layer "F.CrtYd")
		(uuid "0c5c0048-1f0d-4d26-993c-023e776eb346")
	)
	(fp_line
		(start -2.4 -2.3)
		(end 2.4 -2.3)
		(stroke
			(width 0.05)
			(type solid)
		)
		(layer "F.CrtYd")
		(uuid "65330687-d5ee-49fe-a22d-5d10f508753a")
	)
	(fp_line
		(start -2.4 2.3)
		(end 2.4 2.3)
		(stroke
			(width 0.05)
			(type solid)
		)
		(layer "F.CrtYd")
		(uuid "6c212ccc-842b-4ac7-8fa7-643c05f5f8c9")
	)
	(fp_line
		(start 2.4 -2.3)
		(end 2.4 2.3)
		(stroke
			(width 0.05)
			(type solid)
		)
		(layer "F.CrtYd")
		(uuid "afbc545c-8abf-489e-b080-4f3492540f82")
	)
	(fp_line
		(start -2 -1)
		(end -1 -2)
		(stroke
			(width 0.1)
			(type solid)
		)
		(layer "F.Fab")
		(uuid "eb461778-c944-4012-9cce-510f1cff279f")
	)
	(fp_line
		(start -2 2)
		(end -2 -1)
		(stroke
			(width 0.1)
			(type solid)
		)
		(layer "F.Fab")
		(uuid "9c03b1e1-2e82-4cec-a168-c04957e6d1d5")
	)
	(fp_line
		(start -1 -2)
		(end 2 -2)
		(stroke
			(width 0.1)
			(type solid)
		)
		(layer "F.Fab")
		(uuid "5fe36eba-7541-40fd-9a5d-6f2bdcd7f316")
	)
	(fp_line
		(start 2 -2)
		(end 2 2)
		(stroke
			(width 0.1)
			(type solid)
		)
		(layer "F.Fab")
		(uuid "2769d2cb-948c-4bc0-9c86-4ef88e709da7")
	)
	(fp_line
		(start 2 2)
		(end -2 2)
		(stroke
			(width 0.1)
			(type solid)
		)
		(layer "F.Fab")
		(uuid "a6aacd7e-a320-4649-a604-fcf99c05521a")
	)
	(fp_text user "${REFERENCE}"
		(at 0 0 0)
		(layer "F.Fab")
		(uuid "76e15836-f025-4c5e-975e-9b099a591e85")
		(effects
			(font
				(size 1 1)
				(thickness 0.15)
			)
		)
	)
	(pad "" smd rect
		(at -0.715 -1.35)
		(size 1.2 0.7)
		(layers "F.Paste")
		(uuid "c653e4aa-af53-41af-a2de-eecd1f887e73")
	)
	(pad "" smd rect
		(at -0.715 -0.45)
		(size 1.2 0.7)
		(layers "F.Paste")
		(uuid "33303843-024b-446b-8068-75aae042d758")
	)
	(pad "" smd rect
		(at -0.715 0.45)
		(size 1.2 0.7)
		(layers "F.Paste")
		(uuid "0c591980-2337-4d8c-bfdd-73aa2f9d0c72")
	)
	(pad "" smd rect
		(at -0.715 1.35)
		(size 1.2 0.7)
		(layers "F.Paste")
		(uuid "06414398-f9c7-4c76-82e6-b9a6b816cc8e")
	)
	(pad "" smd rect
		(at 0.715 -1.35)
		(size 1.2 0.7)
		(layers "F.Paste")
		(uuid "3a530869-73da-4207-b010-86a0aaf30996")
	)
	(pad "" smd rect
		(at 0.715 -0.45)
		(size 1.2 0.7)
		(layers "F.Paste")
		(uuid "2b250a1e-4f2f-47a9-83a4-b03442bfccb2")
	)
	(pad "" smd rect
		(at 0.715 0.45)
		(size 1.2 0.7)
		(layers "F.Paste")
		(uuid "fd89e388-1e8c-4f96-b18f-3742e8ad2433")
	)
	(pad "" smd rect
		(at 0.715 1.35)
		(size 1.2 0.7)
		(layers "F.Paste")
		(uuid "315273ef-84c6-46ab-9e84-1f9738cdc627")
	)
	(pad "1" smd rect
		(at -1.875 -1.5)
		(size 0.55 0.33)
		(layers "F.Cu" "F.Paste" "F.Mask")
		(uuid "ae2223b8-4e23-4f0f-976f-548cdac9271e")
	)
	(pad "2" smd rect
		(at -1.875 -1)
		(size 0.55 0.33)
		(layers "F.Cu" "F.Paste" "F.Mask")
		(uuid "e3e9b4dd-f080-4438-b820-61b68dcafcde")
	)
	(pad "3" smd rect
		(at -1.875 -0.5)
		(size 0.55 0.33)
		(layers "F.Cu" "F.Paste" "F.Mask")
		(uuid "cfec1489-4321-482a-93e8-3d8e874224bf")
	)
	(pad "4" smd rect
		(at -1.875 0)
		(size 0.55 0.33)
		(layers "F.Cu" "F.Paste" "F.Mask")
		(uuid "c0cf1896-0a35-4873-ac64-01365643a940")
	)
	(pad "5" smd rect
		(at -1.875 0.5)
		(size 0.55 0.33)
		(layers "F.Cu" "F.Paste" "F.Mask")
		(uuid "887f2a7f-b476-46f2-a6a1-8466eb6d9889")
	)
	(pad "6" smd rect
		(at -1.875 1)
		(size 0.55 0.33)
		(layers "F.Cu" "F.Paste" "F.Mask")
		(uuid "4e7b3669-fa69-48f4-8a42-486b6c8fbdb0")
	)
	(pad "7" smd rect
		(at -1.875 1.5)
		(size 0.55 0.33)
		(layers "F.Cu" "F.Paste" "F.Mask")
		(uuid "0b2f1d1d-f3b6-4f14-91cf-5a3b702b9b3b")
	)
	(pad "8" smd rect
		(at 1.875 1.5)
		(size 0.55 0.33)
		(layers "F.Cu" "F.Paste" "F.Mask")
		(uuid "1d4b6877-51bc-4344-9584-014c054ed85a")
	)
	(pad "9" smd rect
		(at 1.875 1)
		(size 0.55 0.33)
		(layers "F.Cu" "F.Paste" "F.Mask")
		(uuid "7f0d60ee-09d9-41d4-a5fa-85438924abd1")
	)
	(pad "10" smd rect
		(at 1.875 0.5)
		(size 0.55 0.33)
		(layers "F.Cu" "F.Paste" "F.Mask")
		(uuid "1f4e5720-d808-4444-bcdd-336307db17f4")
	)
	(pad "11" smd rect
		(at 1.875 0)
		(size 0.55 0.33)
		(layers "F.Cu" "F.Paste" "F.Mask")
		(uuid "1dd45e34-e294-4b87-afd6-50d337f613fa")
	)
	(pad "12" smd rect
		(at 1.875 -0.5)
		(size 0.55 0.33)
		(layers "F.Cu" "F.Paste" "F.Mask")
		(uuid "4f54bc91-19ad-4109-ad43-3cfe37955dc7")
	)
	(pad "13" smd rect
		(at 1.875 -1)
		(size 0.55 0.33)
		(layers "F.Cu" "F.Paste" "F.Mask")
		(uuid "a04875f8-ef11-4f50-993f-55442f0fc918")
	)
	(pad "14" smd rect
		(at 1.875 -1.5)
		(size 0.55 0.33)
		(layers "F.Cu" "F.Paste" "F.Mask")
		(uuid "be9b40b2-3703-4a00-a102-9dfb0b5950fa")
	)
	(pad "15" smd rect
		(at 0 0)
		(size 2.86 3.6)
		(layers "F.Cu" "F.Mask")
		(uuid "d7046f49-847f-4693-a744-aebc8ae289ab")
	)
	(model "${KICAD8_3DMODEL_DIR}/Package_DFN_QFN.3dshapes/DFN-14-1EP_4x4mm_P0.5mm_EP2.86x3.6mm.wrl"
		(offset
			(xyz 0 0 0)
		)
		(scale
			(xyz 1 1 1)
		)
		(rotate
			(xyz 0 0 0)
		)
	)
)